[gd_resource type="StyleBoxTexture" load_steps=2 format=2]

[ext_resource path="res://Assets/Sprites/UI/Dialog Box/General float.png" type="Texture" id=1]

[resource]
texture = ExtResource( 1 )
region_rect = Rect2( 0, 0, 128, 88 )
margin_left = 15.9544
margin_right = 17.5048
margin_top = 15.0552
margin_bottom = 15.5441
