[gd_scene load_steps=4 format=2]

[ext_resource path="res://Scripts/Object/Board.gd" type="Script" id=1]
[ext_resource path="res://Prefabs/Trigger.tscn" type="PackedScene" id=2]
[ext_resource path="res://Assets/Sprites/Scene/A01/完整的桥拆分/02木头1（靠近石桥那块.png" type="Texture" id=3]

[node name="Board" type="Node2D"]
position = Vector2( 267.207, 111.581 )
script = ExtResource( 1 )

[node name="Trigger" parent="." instance=ExtResource( 2 )]
ClickOnly = true

[node name="Sprite" type="Sprite" parent="."]
position = Vector2( 955.097, 442.606 )
texture = ExtResource( 3 )
