[gd_scene load_steps=4 format=2]

[ext_resource path="res://Resources/StyleBox/DialogBox_Dark.tres" type="StyleBox" id=1]
[ext_resource path="res://Scripts/WhisperBox.gd" type="Script" id=2]
[ext_resource path="res://Resources/Theme/MainTheme.tres" type="Theme" id=3]

[node name="WhisperBox" type="Panel"]
self_modulate = Color( 1, 1, 1, 0.819608 )
anchor_top = 1.0
anchor_bottom = 1.0
margin_top = -190.0
margin_right = 1129.0
mouse_filter = 2
custom_styles/panel = ExtResource( 1 )
script = ExtResource( 2 )

[node name="Label" type="Label" parent="."]
anchor_left = 0.5
anchor_top = 0.5
anchor_right = 0.5
anchor_bottom = 0.5
margin_left = -340.5
margin_top = -45.0
margin_right = 340.5
margin_bottom = 45.0
theme = ExtResource( 3 )
align = 1
